Plant ,Nameplate Capacity MW,Online Date
Vansycle,25,10/25/1998
Stateline,90,12/18/2001
Klondike I,24,1/16/2002
Condon,50,6/18/2002
Klondike II,76,6/28/2005
Hopkins Ridge,157,11/25/2005
Leaning Juniper,100,8/10/2006
Big Horn,200,10/4/2006
White Creek,200,10/5/2007
Klondike III,226,10/15/2007
Biglow Canyon PH 1,126,11/17/2007
Nine Canyon @ 28%,27,11/26/2007
Goodnoe Hills,96,4/29/2008
Nine Canyon @ 52%,24,5/10/2008
Klondike 3a,75,6/6/2008
Arlington,103,12/7/2008
Willow Creek,72,1/1/2009
Pebble Springs,100,1/27/2009
Hay Canyon,100,2/12/2009
Wheatfield,97,3/22/2009
Tuolumne,137,5/1/2009
Biglow Canyon Phase 2,149,8/6/2009
Windy Flats Dooley (phase 1),30,9/21/2009
Windy Flats Dooley (phase 2),233,11/30/2009
Harvest,100,12/16/2009
Combine Hills,63,1/1/2010
Star Point,100,1/15/2010
Linden Farm,50,6/6/2010
Coastal Energy,6,6/30/2010
Biglow Canyon PH 2&3,175,8/11/2010
Big Horn II,50,10/8/2010
Leaning Juniper II PH A,91,10/24/2010
Kittitas Valley Wind,101,11/15/2010
PATU Wind,10,11/29/2010
Leaning Juniper II PH B,109,12/1/2010
Juniper Canyon,150,2/11/2011
North Hurlbert,266,11/20/2011
Lower Snake Wind,343,2/29/2012
South Hurlbert,290,3/11/2012
Horseshoe Bend,290,5/17/2012
