TRADE DATE,BEGIN DATE,END DATE,HIGH,LOW,AVG,CHG,VOL (MWH),# DEALS,# CPARTIES
"Dec 28, 2009","Dec 29, 2009","Dec 29, 2009",54,51,52.9,3.49,42800,96,23
"Dec 29, 2009","Dec 30, 2009","Dec 31, 2009",55.25,50.75,54.47,1.57,85600,106,27
"Dec 30, 2009","Jan 2, 2010","Jan 2, 2010",48,44,45.8,-8.67,36000,90,26
"Dec 31, 2009","Jan 4, 2010","Jan 4, 2010",49,47,48.07,2.27,36000,87,23
"Jan 4, 2010","Jan 5, 2010","Jan 5, 2010",53,48,50.33,2.26,87200,193,30
"Jan 5, 2010","Jan 6, 2010","Jan 6, 2010",49.75,45.5,48.4,-1.93,70400,154,29
"Jan 6, 2010","Jan 7, 2010","Jan 7, 2010",48,45,46.48,-1.92,62000,146,28
"Jan 7, 2010","Jan 8, 2010","Jan 9, 2010",54,49,51.48,5,90400,108,29
"Jan 8, 2010","Jan 11, 2010","Jan 11, 2010",47.5,44.5,45.53,-5.95,38800,94,28
"Jan 11, 2010","Jan 12, 2010","Jan 12, 2010",44,42.25,43.06,-2.47,45600,113,29
"Jan 12, 2010","Jan 13, 2010","Jan 14, 2010",45,41.25,43.38,0.32,132000,155,32
"Jan 13, 2010","Jan 15, 2010","Jan 16, 2010",43.5,42.5,43.09,-0.29,132000,147,31
"Jan 14, 2010","Jan 18, 2010","Jan 18, 2010",47,45,45.85,2.76,86800,200,27
"Jan 15, 2010","Jan 19, 2010","Jan 19, 2010",49,46.5,47.82,1.97,80400,191,27
"Jan 19, 2010","Jan 20, 2010","Jan 20, 2010",48.75,46.8,48,0.18,34800,85,30
"Jan 20, 2010","Jan 21, 2010","Jan 21, 2010",49.5,48.5,48.91,0.91,67600,166,30
"Jan 21, 2010","Jan 22, 2010","Jan 23, 2010",47,43.75,45.47,-3.44,102400,116,31
"Jan 22, 2010","Jan 25, 2010","Jan 25, 2010",49.5,47,48.49,3.02,77200,158,28
"Jan 25, 2010","Jan 26, 2010","Jan 26, 2010",50.55,49,49.81,1.32,52800,129,31
"Jan 26, 2010","Jan 27, 2010","Jan 28, 2010",49.2,48.05,48.65,-1.16,105600,120,28
"Jan 27, 2010","Jan 29, 2010","Jan 30, 2010",46,44,45.12,-3.53,70400,74,26
"Jan 29, 2010","Feb 1, 2010","Feb 1, 2010",47.75,43.5,45.99,0.87,72400,170,28
"Feb 1, 2010","Feb 2, 2010","Feb 2, 2010",45.5,44,44.72,-1.27,51200,126,29
"Feb 2, 2010","Feb 3, 2010","Feb 3, 2010",49,46,46.9,2.18,76000,171,28
"Feb 3, 2010","Feb 4, 2010","Feb 4, 2010",49,47.35,48.3,1.4,88800,205,30
"Feb 4, 2010","Feb 5, 2010","Feb 6, 2010",48.75,47,48.08,-0.22,225600,249,31
"Feb 5, 2010","Feb 8, 2010","Feb 8, 2010",49.75,47.25,48.77,0.69,70000,157,28
"Feb 8, 2010","Feb 9, 2010","Feb 9, 2010",49,45.5,47.23,-1.54,73200,169,32
"Feb 9, 2010","Feb 10, 2010","Feb 11, 2010",47.75,46.25,46.64,-0.59,252800,276,34
"Feb 10, 2010","Feb 12, 2010","Feb 13, 2010",48,45,47.14,0.5,163200,181,29
"Feb 11, 2010","Feb 15, 2010","Feb 15, 2010",47.75,46,46.74,-0.4,63600,154,27
"Feb 12, 2010","Feb 16, 2010","Feb 16, 2010",45.5,42.5,44.41,-2.33,80800,183,27
"Feb 16, 2010","Feb 17, 2010","Feb 17, 2010",44,42,42.87,-1.54,55600,133,27
"Feb 17, 2010","Feb 18, 2010","Feb 18, 2010",42.75,41.5,42.05,-0.82,102800,233,27
"Feb 18, 2010","Feb 19, 2010","Feb 20, 2010",41,40,40.62,-1.43,233600,269,28
"Feb 19, 2010","Feb 22, 2010","Feb 22, 2010",41,39.5,40.37,-0.25,86800,197,26
"Feb 22, 2010","Feb 23, 2010","Feb 23, 2010",42.5,40,40.93,0.56,83200,184,30
"Feb 23, 2010","Feb 24, 2010","Feb 25, 2010",42.5,41,41.58,0.65,157600,179,25
"Feb 24, 2010","Feb 26, 2010","Feb 27, 2010",45,41.25,42.13,0.55,205600,240,26
"Feb 26, 2010","Mar 1, 2010","Mar 1, 2010",42.15,41.25,41.65,-0.48,92000,212,28
"Mar 1, 2010","Mar 2, 2010","Mar 2, 2010",41.65,38.5,41.03,-0.62,78800,180,30
"Mar 2, 2010","Mar 3, 2010","Mar 3, 2010",40.25,38.75,39.72,-1.31,82800,195,32
"Mar 3, 2010","Mar 4, 2010","Mar 4, 2010",42,38.75,39.46,-0.26,94400,211,30
"Mar 4, 2010","Mar 5, 2010","Mar 6, 2010",42.5,38.25,39.75,0.29,301600,321,30
"Mar 5, 2010","Mar 8, 2010","Mar 8, 2010",42.25,39,41.47,1.72,73200,167,32
"Mar 8, 2010","Mar 9, 2010","Mar 9, 2010",46.25,42,43.34,1.87,59200,120,24
"Mar 9, 2010","Mar 10, 2010","Mar 10, 2010",45.5,43,44.12,0.78,78000,181,25
"Mar 10, 2010","Mar 11, 2010","Mar 11, 2010",44.75,43.25,44.1,-0.02,87600,190,28
"Mar 11, 2010","Mar 12, 2010","Mar 13, 2010",44,37.75,42.6,-1.5,145600,164,32
"Mar 12, 2010","Mar 15, 2010","Mar 15, 2010",41,39.75,40.18,-2.42,97200,223,30
"Mar 15, 2010","Mar 16, 2010","Mar 16, 2010",45,40.75,41.92,1.74,91200,215,29
"Mar 16, 2010","Mar 17, 2010","Mar 17, 2010",44,42,43.16,1.24,85600,209,29
"Mar 17, 2010","Mar 18, 2010","Mar 18, 2010",43.5,40.75,42.76,-0.4,78000,169,29
"Mar 18, 2010","Mar 19, 2010","Mar 20, 2010",39,37.5,38.5,-4.26,195200,204,35
"Mar 19, 2010","Mar 22, 2010","Mar 22, 2010",40,36.75,38.09,-0.41,82800,183,27
"Mar 22, 2010","Mar 23, 2010","Mar 23, 2010",40.25,36,38.34,0.25,97600,203,27
"Mar 23, 2010","Mar 24, 2010","Mar 24, 2010",40,38,39.44,1.1,81200,181,31
"Mar 24, 2010","Mar 25, 2010","Mar 25, 2010",38.75,37.25,38.19,-1.25,89200,205,29
"Mar 25, 2010","Mar 26, 2010","Mar 27, 2010",37.45,36.25,36.88,-1.31,245600,265,29
"Mar 26, 2010","Mar 29, 2010","Mar 29, 2010",37.25,35.25,36.66,-0.22,136000,250,28
"Mar 29, 2010","Mar 30, 2010","Mar 30, 2010",39.75,37.5,38.72,2.06,141600,286,29
"Mar 30, 2010","Mar 31, 2010","Mar 31, 2010",41.5,39.5,40.03,1.31,78400,192,27
"Mar 31, 2010","Apr 1, 2010","Apr 3, 2010",42,38,40.15,0.12,241200,177,32
"Apr 1, 2010","Apr 5, 2010","Apr 5, 2010",39.5,36.6,37.96,-2.19,129600,254,32
"Apr 5, 2010","Apr 6, 2010","Apr 6, 2010",38.45,36.75,37.42,-0.54,107600,227,35
"Apr 6, 2010","Apr 7, 2010","Apr 7, 2010",45,39.5,41.7,4.28,129200,285,35
"Apr 7, 2010","Apr 8, 2010","Apr 8, 2010",45,40.25,41.18,-0.52,160800,334,34
"Apr 8, 2010","Apr 9, 2010","Apr 10, 2010",50,42,45.73,4.55,342400,388,32
"Apr 9, 2010","Apr 12, 2010","Apr 12, 2010",50,47.75,48.84,3.11,114800,254,30
"Apr 12, 2010","Apr 13, 2010","Apr 13, 2010",42.75,40,41.61,-7.23,87600,207,30
"Apr 13, 2010","Apr 14, 2010","Apr 14, 2010",46,40,41.56,-0.05,115600,283,32
"Apr 14, 2010","Apr 15, 2010","Apr 15, 2010",46,42,43.44,1.88,134400,273,33
"Apr 15, 2010","Apr 16, 2010","Apr 17, 2010",43.5,40.5,41.81,-1.63,188000,226,33
"Apr 16, 2010","Apr 19, 2010","Apr 19, 2010",40.75,38,40.17,-1.64,96800,215,29
"Apr 19, 2010","Apr 20, 2010","Apr 20, 2010",37.5,33.75,35.41,-4.76,130000,295,34
"Apr 20, 2010","Apr 21, 2010","Apr 21, 2010",33.5,30.25,31.35,-4.06,146400,330,34
"Apr 21, 2010","Apr 22, 2010","Apr 22, 2010",32.5,30.75,31.39,0.04,134400,298,32
"Apr 22, 2010","Apr 23, 2010","Apr 24, 2010",31,29,30.3,-1.09,286400,310,34
"Apr 23, 2010","Apr 26, 2010","Apr 26, 2010",34,32.5,33.3,3,128400,304,28
"Apr 26, 2010","Apr 27, 2010","Apr 27, 2010",34.5,33.3,34.02,0.72,118400,248,32
"Apr 27, 2010","Apr 28, 2010","Apr 29, 2010",35.75,32.5,34.6,0.58,260800,288,33
"Apr 28, 2010","Apr 30, 2010","Apr 30, 2010",33.5,31.5,31.93,-2.67,91600,224,35
"Apr 29, 2010","May 1, 2010","May 1, 2010",31,27,30.03,-1.9,82800,197,32
"Apr 30, 2010","May 3, 2010","May 3, 2010",33.25,31.75,32.65,2.62,102800,223,34
"May 3, 2010","May 4, 2010","May 4, 2010",33,31.5,32.14,-0.51,56400,137,32
"May 4, 2010","May 5, 2010","May 5, 2010",38,32.75,33.99,1.85,98800,232,33
"May 5, 2010","May 6, 2010","May 6, 2010",38.5,34.25,36.84,2.85,121600,278,34
"May 6, 2010","May 7, 2010","May 8, 2010",40,35,36.87,0.03,266400,319,38
"May 7, 2010","May 10, 2010","May 10, 2010",39,32,36.28,-0.59,78000,186,30
"May 10, 2010","May 11, 2010","May 11, 2010",32.75,30.5,32.2,-4.08,73600,175,31
"May 11, 2010","May 12, 2010","May 12, 2010",34,32.5,33.04,0.84,116000,283,34
"May 12, 2010","May 13, 2010","May 13, 2010",34.5,32,33.19,0.15,83600,188,33
"May 13, 2010","May 14, 2010","May 15, 2010",35.25,31.75,33.27,0.08,204000,239,30
"May 14, 2010","May 17, 2010","May 17, 2010",33,30.5,31.65,-1.62,67600,163,29
"May 17, 2010","May 18, 2010","May 18, 2010",32,28.75,30.22,-1.43,73600,172,35
"May 18, 2010","May 19, 2010","May 19, 2010",31.5,29.55,30.38,0.16,94400,233,33
"May 19, 2010","May 20, 2010","May 20, 2010",27.5,24.5,25.67,-4.71,119200,281,34
"May 20, 2010","May 21, 2010","May 22, 2010",22.25,11,19.53,-6.14,244000,290,36
"May 21, 2010","May 24, 2010","May 24, 2010",26.25,23,24.98,5.45,81600,192,33
"May 24, 2010","May 25, 2010","May 25, 2010",30,26.5,27.45,2.47,118800,254,35
"May 25, 2010","May 26, 2010","May 27, 2010",30.25,28.5,29.53,2.08,181600,218,34
"May 26, 2010","May 28, 2010","May 29, 2010",26.75,23,25.85,-3.68,154400,182,32
"May 28, 2010","Jun 1, 2010","Jun 1, 2010",28,24,27.25,1.4,82400,179,29
"Jun 1, 2010","Jun 2, 2010","Jun 2, 2010",26,20.5,22.63,-4.62,85200,207,33
"Jun 2, 2010","Jun 3, 2010","Jun 3, 2010",23,20,22.17,-0.46,109600,269,33
"Jun 3, 2010","Jun 4, 2010","Jun 5, 2010",20.5,13,17.07,-5.1,324800,375,33
"Jun 4, 2010","Jun 7, 2010","Jun 7, 2010",23.5,16,21.26,4.19,108800,261,30
"Jun 7, 2010","Jun 8, 2010","Jun 8, 2010",14,9,10.94,-10.32,126000,264,33
"Jun 8, 2010","Jun 9, 2010","Jun 9, 2010",11,3.5,9.74,-1.2,144400,315,34
"Jun 9, 2010","Jun 10, 2010","Jun 10, 2010",9.75,1.5,7.68,-2.06,164400,340,34
"Jun 10, 2010","Jun 11, 2010","Jun 12, 2010",6.25,3,4.43,-3.25,262400,301,33
"Jun 11, 2010","Jun 14, 2010","Jun 14, 2010",7,4,6.26,1.83,124400,261,29
"Jun 14, 2010","Jun 15, 2010","Jun 15, 2010",15,9.5,11.03,4.77,152400,329,35
"Jun 15, 2010","Jun 16, 2010","Jun 16, 2010",14,7,12.44,1.41,153200,316,32
"Jun 16, 2010","Jun 17, 2010","Jun 17, 2010",12.5,9,11.93,-0.51,166000,351,31
"Jun 17, 2010","Jun 18, 2010","Jun 19, 2010",10.75,5.5,7.81,-4.12,241600,274,31
"Jun 18, 2010","Jun 21, 2010","Jun 21, 2010",18,11.25,12.64,4.83,160400,366,30
"Jun 21, 2010","Jun 22, 2010","Jun 22, 2010",26.75,14.5,17.19,4.55,160000,349,32
"Jun 22, 2010","Jun 23, 2010","Jun 23, 2010",32.5,21,24.79,7.6,174400,377,34
"Jun 23, 2010","Jun 24, 2010","Jun 24, 2010",28,20,26.06,1.27,158400,333,32
"Jun 24, 2010","Jun 25, 2010","Jun 26, 2010",22,16,19.76,-6.3,256800,304,32
"Jun 25, 2010","Jun 28, 2010","Jun 28, 2010",32.75,29,31.2,11.44,105200,252,28
"Jun 28, 2010","Jun 29, 2010","Jun 29, 2010",34.5,29.75,32.32,1.12,114000,258,29
"Jun 29, 2010","Jun 30, 2010","Jun 30, 2010",34.5,30.5,32.86,0.54,101200,238,29
"Jun 30, 2010","Jul 1, 2010","Jul 1, 2010",31,27,30.05,-2.81,143200,329,31
"Jul 1, 2010","Jul 2, 2010","Jul 3, 2010",28,24,27.35,-2.7,164800,181,28
"Jul 2, 2010","Jul 6, 2010","Jul 6, 2010",43,36,37.11,9.76,82400,193,30
"Jul 6, 2010","Jul 7, 2010","Jul 7, 2010",44,35,41.01,3.9,54800,131,28
"Jul 7, 2010","Jul 8, 2010","Jul 8, 2010",40.5,35,37.46,-3.55,76000,175,28
"Jul 8, 2010","Jul 9, 2010","Jul 10, 2010",33,30.5,31.93,-5.53,176800,204,33
"Jul 9, 2010","Jul 12, 2010","Jul 12, 2010",35,29,30.72,-1.21,83200,201,27
"Jul 12, 2010","Jul 13, 2010","Jul 13, 2010",31.75,29.25,30.69,-0.03,76000,174,30
"Jul 13, 2010","Jul 14, 2010","Jul 14, 2010",34.5,32.75,33.67,2.98,142800,260,30
"Jul 14, 2010","Jul 15, 2010","Jul 15, 2010",38.5,34,35.97,2.3,76000,175,28
"Jul 15, 2010","Jul 16, 2010","Jul 17, 2010",38.5,36.25,37.67,1.7,170400,209,31
"Jul 16, 2010","Jul 19, 2010","Jul 19, 2010",40.5,38,39.1,1.43,83200,173,28
"Jul 19, 2010","Jul 20, 2010","Jul 20, 2010",42.35,40,41.52,2.42,67200,137,28
"Jul 20, 2010","Jul 21, 2010","Jul 21, 2010",41.25,39.75,40.23,-1.29,92800,181,23
"Jul 21, 2010","Jul 22, 2010","Jul 22, 2010",39,35.05,37.91,-2.32,89600,185,31
"Jul 22, 2010","Jul 23, 2010","Jul 24, 2010",40.25,38.75,39.58,1.67,148800,157,22
"Jul 23, 2010","Jul 26, 2010","Jul 26, 2010",43.75,40,41.33,1.75,84800,191,28
"Jul 26, 2010","Jul 27, 2010","Jul 27, 2010",44.75,42.5,43.68,2.35,65200,151,27
"Jul 27, 2010","Jul 28, 2010","Jul 28, 2010",42.25,40.5,41.58,-2.1,60800,138,24
"Jul 28, 2010","Jul 29, 2010","Jul 29, 2010",44,41.5,42.8,1.22,68000,162,27
"Jul 29, 2010","Jul 30, 2010","Jul 31, 2010",39.25,35,37.84,-4.96,98400,121,26
"Jul 30, 2010","Aug 2, 2010","Aug 2, 2010",46.25,39.5,42.83,4.99,59200,135,29
"Aug 2, 2010","Aug 3, 2010","Aug 3, 2010",44,41.75,42.73,-0.1,89600,165,28
"Aug 3, 2010","Aug 4, 2010","Aug 4, 2010",43.5,40.55,41.59,-1.14,98000,223,27
"Aug 4, 2010","Aug 5, 2010","Aug 5, 2010",45.25,40.25,42.41,0.82,104400,237,29
"Aug 5, 2010","Aug 6, 2010","Aug 7, 2010",39,33.25,37.81,-4.6,213600,252,30
"Aug 6, 2010","Aug 9, 2010","Aug 9, 2010",39,36,37.01,-0.8,130800,299,29
"Aug 9, 2010","Aug 10, 2010","Aug 10, 2010",39.5,36.5,38.44,1.43,92400,218,30
"Aug 10, 2010","Aug 11, 2010","Aug 11, 2010",39.75,37,37.97,-0.47,124000,262,30
"Aug 11, 2010","Aug 12, 2010","Aug 12, 2010",41,39.25,40.05,2.08,135600,296,29
"Aug 12, 2010","Aug 13, 2010","Aug 14, 2010",45,42,43.97,3.92,182400,222,29
"Aug 13, 2010","Aug 16, 2010","Aug 16, 2010",56,47,50.01,6.04,116000,276,28
"Aug 16, 2010","Aug 17, 2010","Aug 17, 2010",43.25,38.55,41.87,-8.14,96000,218,29
"Aug 17, 2010","Aug 18, 2010","Aug 18, 2010",35.25,30,34.53,-7.34,110000,253,27
"Aug 18, 2010","Aug 19, 2010","Aug 19, 2010",36,33.25,33.96,-0.57,93600,224,30
"Aug 19, 2010","Aug 20, 2010","Aug 21, 2010",38,32.5,34.7,0.74,170400,210,29
"Aug 20, 2010","Aug 23, 2010","Aug 23, 2010",43,36.75,38.06,3.36,95600,214,29
"Aug 23, 2010","Aug 24, 2010","Aug 24, 2010",50.5,46,48.64,10.58,78800,174,26
"Aug 24, 2010","Aug 25, 2010","Aug 25, 2010",51.25,47.25,49.69,1.05,70000,164,27
"Aug 25, 2010","Aug 26, 2010","Aug 26, 2010",39.75,38,38.44,-11.25,75600,174,27
"Aug 26, 2010","Aug 27, 2010","Aug 28, 2010",43.5,35.25,36.29,-2.15,115200,132,24
"Aug 27, 2010","Aug 30, 2010","Aug 30, 2010",41.5,35,37.22,0.93,94000,219,26
"Aug 30, 2010","Aug 31, 2010","Aug 31, 2010",41.5,34.75,37.84,0.62,83600,195,28
"Aug 31, 2010","Sep 1, 2010","Sep 2, 2010",40,36.25,37.95,0.11,154400,177,26
"Sep 1, 2010","Sep 3, 2010","Sep 4, 2010",36.5,34.5,35.76,-2.19,166400,189,26
"Sep 3, 2010","Sep 7, 2010","Sep 7, 2010",37.75,34.25,36.51,0.75,63600,158,24
"Sep 7, 2010","Sep 8, 2010","Sep 8, 2010",38.5,35.5,37.26,0.75,45600,110,26
"Sep 8, 2010","Sep 9, 2010","Sep 9, 2010",36.25,32,35.39,-1.87,80400,173,31
"Sep 9, 2010","Sep 10, 2010","Sep 11, 2010",35,32.75,33.83,-1.56,116000,141,28
"Sep 10, 2010","Sep 13, 2010","Sep 13, 2010",38.5,37.25,37.74,3.91,69600,162,29
"Sep 13, 2010","Sep 14, 2010","Sep 14, 2010",40,38.5,39.16,1.42,44400,109,27
"Sep 14, 2010","Sep 15, 2010","Sep 15, 2010",41.25,39,40.45,1.29,74400,157,28
"Sep 15, 2010","Sep 16, 2010","Sep 16, 2010",41,38,39.98,-0.47,69200,162,27
"Sep 16, 2010","Sep 17, 2010","Sep 18, 2010",38.5,36.75,37.79,-2.19,109600,130,28
"Sep 17, 2010","Sep 20, 2010","Sep 20, 2010",38.25,34.75,36.98,-0.81,70800,168,27
"Sep 20, 2010","Sep 21, 2010","Sep 21, 2010",37.5,36,36.53,-0.45,60000,139,25
"Sep 21, 2010","Sep 22, 2010","Sep 22, 2010",36.25,34.25,35.47,-1.06,58800,135,29
"Sep 22, 2010","Sep 23, 2010","Sep 23, 2010",35.5,33.25,34.8,-0.67,72000,173,26
"Sep 23, 2010","Sep 24, 2010","Sep 25, 2010",39.25,35,35.72,0.92,119200,140,28
"Sep 24, 2010","Sep 27, 2010","Sep 27, 2010",41,36,39.26,3.54,61600,148,33
"Sep 27, 2010","Sep 28, 2010","Sep 28, 2010",36.75,33,35.82,-3.44,64800,158,28
"Sep 28, 2010","Sep 29, 2010","Sep 29, 2010",36.75,35.5,36.07,0.25,70000,168,27
"Sep 29, 2010","Sep 30, 2010","Sep 30, 2010",37,35.25,35.92,-0.15,90000,204,33
"Sep 30, 2010","Oct 1, 2010","Oct 2, 2010",34,31,32.4,-3.52,208000,243,32
"Oct 1, 2010","Oct 4, 2010","Oct 4, 2010",30.5,27.75,29.5,-2.9,100400,219,29
"Oct 4, 2010","Oct 5, 2010","Oct 5, 2010",30.5,28,29.57,0.07,90800,205,34
"Oct 5, 2010","Oct 6, 2010","Oct 6, 2010",29.25,28.5,28.93,-0.64,100800,202,31
"Oct 6, 2010","Oct 7, 2010","Oct 7, 2010",28,25,27.55,-1.38,95600,199,31
"Oct 7, 2010","Oct 8, 2010","Oct 9, 2010",27.05,22.5,26.53,-1.02,216000,220,33
"Oct 8, 2010","Oct 11, 2010","Oct 11, 2010",30,27,28.03,1.5,84400,184,30
"Oct 11, 2010","Oct 12, 2010","Oct 12, 2010",32,29,30.98,2.95,76400,182,31
"Oct 12, 2010","Oct 13, 2010","Oct 13, 2010",34.75,32,33.44,2.46,97600,225,33
"Oct 13, 2010","Oct 14, 2010","Oct 14, 2010",33,30,31.95,-1.49,86400,196,32
"Oct 14, 2010","Oct 15, 2010","Oct 16, 2010",33.25,30,30.89,-1.06,167200,192,31
"Oct 15, 2010","Oct 18, 2010","Oct 18, 2010",35.5,32.5,34.25,3.36,87600,203,29
"Oct 18, 2010","Oct 19, 2010","Oct 19, 2010",37,33.75,34.63,0.38,78400,186,30
"Oct 19, 2010","Oct 20, 2010","Oct 20, 2010",36,34.5,35.29,0.66,73600,171,26
"Oct 20, 2010","Oct 21, 2010","Oct 21, 2010",35.75,33.25,35.15,-0.14,116000,261,31
"Oct 21, 2010","Oct 22, 2010","Oct 23, 2010",33.75,30.5,32.04,-3.11,131200,152,26
"Oct 22, 2010","Oct 25, 2010","Oct 25, 2010",32.5,29.25,30.79,-1.25,66400,152,24
"Oct 25, 2010","Oct 26, 2010","Oct 26, 2010",33,29.8,31.03,0.24,72400,179,30
"Oct 26, 2010","Oct 27, 2010","Oct 28, 2010",35,33,33.74,2.71,165600,194,27
"Oct 27, 2010","Oct 29, 2010","Oct 30, 2010",35,33,33.79,0.05,136000,160,31
"Oct 29, 2010","Nov 1, 2010","Nov 1, 2010",32.25,30.75,31.52,-2.27,65200,160,28
"Nov 1, 2010","Nov 2, 2010","Nov 2, 2010",32,30,30.53,-0.99,75600,182,28
"Nov 2, 2010","Nov 3, 2010","Nov 3, 2010",31,28.5,29.77,-0.76,96800,232,28
"Nov 3, 2010","Nov 4, 2010","Nov 4, 2010",30,28.5,29.21,-0.56,100400,226,27
"Nov 4, 2010","Nov 5, 2010","Nov 6, 2010",29.25,28,28.56,-0.65,210400,257,29
"Nov 5, 2010","Nov 8, 2010","Nov 8, 2010",31.95,26,30.5,1.94,131200,291,25
"Nov 8, 2010","Nov 9, 2010","Nov 9, 2010",32.5,29.75,30.97,0.47,80000,187,28
"Nov 9, 2010","Nov 10, 2010","Nov 11, 2010",36,33,34.8,3.83,135200,160,26
"Nov 10, 2010","Nov 12, 2010","Nov 13, 2010",36.5,32.75,35.03,0.23,141600,163,25
"Nov 12, 2010","Nov 15, 2010","Nov 15, 2010",33,29.75,31.14,-3.89,79600,196,22
"Nov 15, 2010","Nov 16, 2010","Nov 16, 2010",30.25,28,29.01,-2.13,73200,181,29
"Nov 16, 2010","Nov 17, 2010","Nov 17, 2010",33,30.5,31.27,2.26,74800,177,29
"Nov 17, 2010","Nov 18, 2010","Nov 18, 2010",34,31.25,32.04,0.77,75200,181,26
"Nov 18, 2010","Nov 19, 2010","Nov 20, 2010",35.75,33.75,34.83,2.79,172000,209,27
"Nov 19, 2010","Nov 22, 2010","Nov 22, 2010",47.5,41.75,45.29,10.46,87200,207,27
"Nov 22, 2010","Nov 23, 2010","Nov 24, 2010",59,49.75,52.97,7.68,181600,226,29
"Nov 23, 2010","Nov 26, 2010","Nov 27, 2010",38.25,30.5,35.22,-17.75,120800,150,18
"Nov 24, 2010","Nov 29, 2010","Nov 29, 2010",40,37.25,38.75,3.53,70000,167,24
"Nov 29, 2010","Nov 30, 2010","Nov 30, 2010",41.25,38.5,39.46,0.71,55600,136,22
"Nov 30, 2010","Dec 1, 2010","Dec 1, 2010",41,37.5,40.08,0.62,52400,131,22
"Dec 1, 2010","Dec 2, 2010","Dec 2, 2010",41.25,39.5,40.47,0.39,69200,170,23
"Dec 2, 2010","Dec 3, 2010","Dec 4, 2010",39,34.75,37.72,-2.75,78400,98,22
"Dec 3, 2010","Dec 6, 2010","Dec 6, 2010",38,35,36.69,-1.03,74800,152,20
"Dec 6, 2010","Dec 7, 2010","Dec 7, 2010",36.75,34.75,35.7,-0.99,42000,100,23
"Dec 7, 2010","Dec 8, 2010","Dec 8, 2010",35,33.5,34.31,-1.39,59600,146,29
"Dec 8, 2010","Dec 9, 2010","Dec 9, 2010",34.5,33,33.61,-0.7,73200,159,28
"Dec 9, 2010","Dec 10, 2010","Dec 11, 2010",34.5,32.5,33.68,0.07,121600,139,23
"Dec 10, 2010","Dec 13, 2010","Dec 13, 2010",34.5,32,33.67,-0.01,63600,157,25
"Dec 13, 2010","Dec 14, 2010","Dec 14, 2010",35.5,33.5,34.53,0.86,54800,129,24
"Dec 14, 2010","Dec 15, 2010","Dec 15, 2010",37.75,36.75,37.4,2.87,75600,180,26
"Dec 15, 2010","Dec 16, 2010","Dec 16, 2010",37.25,34,36.17,-1.23,66000,149,26
"Dec 16, 2010","Dec 17, 2010","Dec 18, 2010",34,32.5,33.17,-3,100000,124,24
"Dec 17, 2010","Dec 20, 2010","Dec 20, 2010",35.25,32,33.41,0.24,68000,152,23
"Dec 20, 2010","Dec 21, 2010","Dec 21, 2010",34.25,32,33.37,-0.04,62000,153,25
"Dec 21, 2010","Dec 22, 2010","Dec 23, 2010",33,30.5,32.43,-0.94,117600,142,30
"Dec 22, 2010","Dec 24, 2010","Dec 24, 2010",30,28,29.26,-3.17,63600,148,27
"Dec 23, 2010","Dec 27, 2010","Dec 27, 2010",32.25,30.25,31.09,1.83,66000,160,28
"Dec 27, 2010","Dec 28, 2010","Dec 29, 2010",33.5,30,31.48,0.39,89600,107,22
"Dec 28, 2010","Dec 30, 2010","Dec 31, 2010",36.5,34.25,35.76,4.28,109600,134,21
"Dec 30, 2010","Jan 3, 2011","Jan 3, 2011",37,32.25,34.1,-1.66,64000,160,26
